mirror_name,fig_date,c_factor[mm/px],SD[mm/px],error (c_factor/SD*100)
ITMY,0425_102632,0.168,0.000772,0.46
ITMY,0425_102714,0.169,0.000746,0.44
ETMY,0425_141823,0.0879,0.000119,0.14
ETMY,0425_141931,0.0878,0.000187,0.21
ETMY,0425_142033,0.0876,0.000249,0.28

